Pocket Money [A3] – My-Blog-for-Peasants
…
money <- read_csv("../../data/Pocket_Money.csv")

New names:
Rows: 82 Columns: 5
── Column specification
──────────────────────────────────────────────────────── Delimiter: "," chr
(2): Name, Gender dbl (2): Sr no, Money_spent lgl (1): ...5
ℹ Use `spec()` to retrieve the full column specification for this data. ℹ
Specify the column types or set `show_col_types = FALSE` to quiet this message.
• `` -> `...5`

money

# A tibble: 82 × 5
   `Sr no` Name     Gender Money_spent ...5 
     <dbl> <chr>    <chr>        <dbl> <lgl>
 1       1 Aagam    Male           150 NA   
 2       2 Aakash   Male           240 NA   
 3       3 Aarushi  Female         382 NA   
 4       4 Abheeta  Female          60 NA   
 5       5 Adithya  Male            68 NA   
 6       6 Aditya   Male           300 NA   
 7       7 Akanksha Female         270 NA   
 8       8 Amruta   Female         190 NA   
 9       9 Anaaya   Female         300 NA   
10      10 Anish    Male             0 NA   
# ℹ 72 more rows
…
